…
Example
-------

This package contains frame-by-frame looking data:

``` r
library(LawEdwards2015)
library(dplyr, warn.conflicts = FALSE)

law_edwards_2015
#> # A tibble: 627,912 × 15
#>      Subject BlockNo TrialNo Condition ImageL   ImageR WordGroup
#>        <chr>   <int>   <dbl>     <chr>  <chr>    <chr>     <chr>
#> 1  001C45FS1       1       1       FAM   cat1 opossum1       FAM
#> 2  001C45FS1       1       1       FAM   cat1 opossum1       FAM
#> 3  001C45FS1       1       1       FAM   cat1 opossum1       FAM
#> 4  001C45FS1       1       1       FAM   cat1 opossum1       FAM
#> 5  001C45FS1       1       1       FAM   cat1 opossum1       FAM
#> 6  001C45FS1       1       1       FAM   cat1 opossum1       FAM
#> 7  001C45FS1       1       1       FAM   cat1 opossum1       FAM
#> 8  001C45FS1       1       1       FAM   cat1 opossum1       FAM
#> 9  001C45FS1       1       1       FAM   cat1 opossum1       FAM
#> 10 001C45FS1       1       1       FAM   cat1 opossum1       FAM
#> # ... with 627,902 more rows, and 8 more variables: TargetWord <chr>,
#> #   CarrierOnset <dbl>, TargetEnd <dbl>, TargetLocation <chr>,
#> #   DistractorLocation <chr>, Time <dbl>, GazeByImageAOI <chr>,
#> #   GazeByAOI <chr>
```

Use `AggregateLooks()` from the [lookr package](https://github.com/tjmahr/lookr) to get looking proportions collapsed across trials.

``` r
aggregated <- law_edwards_2015 %>% 
  filter(between(Time, -500, 2000)) %>% 
  # First two trials were familarization
  filter(Condition != "FAM") %>% 
  lookr::AggregateLooks(Subject + Condition + Time ~ GazeByImageAOI) %>% 
  tibble::as_data_frame()
aggregated
#> # A tibble: 15,855 × 12
#>      Subject Condition      Time Distractor Target Elsewhere   NAs Others
#>        <chr>     <chr>     <dbl>      <int>  <int>     <int> <int>  <dbl>
#> 1  001C45FS1        MP -499.6380          7      5         0    12      7
#> 2  001C45FS1        MP -482.9834          7      5         0    12      7
#> 3  001C45FS1        MP -466.3288          7      5         0    12      7
#> 4  001C45FS1        MP -449.6742          7      5         0    12      7
#> 5  001C45FS1        MP -433.0196          7      5         1    11      7
#> 6  001C45FS1        MP -416.3650          7      6         0    11      7
#> 7  001C45FS1        MP -399.7104          8      6         0    10      8
#> 8  001C45FS1        MP -383.0558          8      6         0    10      8
#> 9  001C45FS1        MP -366.4012          8      6         0    10      8
#> 10 001C45FS1        MP -349.7466          8      6         0    10      8
#> # ... with 15,845 more rows, and 4 more variables: Looks <dbl>,
#> #   Proportion <dbl>, ProportionSE <dbl>, PropNA <dbl>
```
…
